-----BEGIN PGP SIGNATURE-----
Version: BCPG v1.64

iQGcBAABCgAGBQJg2FoPAAoJEDdwF3BqJd4kKx0L+gMOxTAFj0pUVZEGHawiL3ec
GEX7tf9KBTFBxdx7utjBKJOOWyh01eqVd73x4NyovabnbDNJz1Jx2X9bL4OW2eT+
MvpQIshekuC+SRK/y3RhfLOGztNGo9r4fn9NWfVklUhc38ElMnieKodYuHJrrWEP
lKWMuQmXY52SfFhpQInCn+Gf93SYO8piXM3C0O0VdvwgIKDsXuYB/GJZoELqT1mI
P4lcuuC9I0s7ErwfCwQEwBLu/d2UZtydOeRhvgHXx0iCJ2QTWVCMbJpF7bZptySn
9ElMZs/yZngoQvFXhhLFqWKFLNdnBDvWNin7Dd0NCDR4ZM/8keGBVbQa8NCXe47T
EwDXRumMTK8h3Aa+KrODlslhSMuV9fg69yIpg8rA5fZob0+EJOWQkm0q8GSWr/4F
Vt2rKkJ55xR3t19JqqXdbNPLl6sAErL1aIz3bBmIddVrFlUb2GP0in3kFykRfRx1
CS7ePSqDA9fMUewiS60xzF8MowO56gb46k0mp4rudw==
=Sc3p
-----END PGP SIGNATURE-----
